target/Input_Buffer/input_buffer_bit_serial_tb_log.txt
Reading C:/intelFPGA_lite/17.0/modelsim_ase/tcl/vsim/pref.tcl

# 10.5b

# vsim -c -do "run -all; quit" work.input_buffer_bit_serial_tb 
# Start time: 01:38:30 on Feb 26,2026
# Loading sv_std.std
# Loading work.input_buffer_pkg
# Loading work.input_buffer_bit_serial_tb_sv_unit
# Loading work.input_buffer_bit_serial_tb
# Loading work.input_buffer_sv_unit
# Loading work.input_buffer
# run -all
# ----------------------------------------
# Input Buffer Bit-Serial (D0-D7) Tests
# Summary: Tests bit-serial read: D0-D7 output one bit per channel per cycle
#          (LSB-first). Block 1: addr 0-7. Block 2: addr 8-15 (buf_reg_add=8).
# ----------------------------------------
# --- Block 1: buf_reg_add=0, addr 0-7 ---
#   Test: bit_sel=0 (addr 0-7) | Expected: 10101010 | Actual: 10101010 | PASS
#   Test: bit_sel=1 (addr 0-7) | Expected: 01100110 | Actual: 01100110 | PASS
#   Test: bit_sel=2 (addr 0-7) | Expected: 00011110 | Actual: 00011110 | PASS
#   Test: bit_sel=3 (addr 0-7) | Expected: 00000001 | Actual: 00000001 | PASS
#   Test: bit_sel=4 (addr 0-7) | Expected: 01010101 | Actual: 01010101 | PASS
#   Test: bit_sel=5 (addr 0-7) | Expected: 00110011 | Actual: 00110011 | PASS
#   Test: bit_sel=6 (addr 0-7) | Expected: 00001111 | Actual: 00001111 | PASS
#   Test: bit_sel=7 (addr 0-7) | Expected: 00000000 | Actual: 00000000 | PASS
# --- Block 2: buf_reg_add=8, addr 8-15 ---
#   Test: bit_sel=0 (addr 8-15) | Expected: 01010101 | Actual: 01010101 | PASS
#   Test: bit_sel=1 (addr 8-15) | Expected: 11001100 | Actual: 11001100 | PASS
#   Test: bit_sel=2 (addr 8-15) | Expected: 01101001 | Actual: 01101001 | PASS
#   Test: bit_sel=3 (addr 8-15) | Expected: 10001110 | Actual: 10001110 | PASS
#   Test: bit_sel=4 (addr 8-15) | Expected: 10100101 | Actual: 10100101 | PASS
#   Test: bit_sel=5 (addr 8-15) | Expected: 01100011 | Actual: 01100011 | PASS
#   Test: bit_sel=6 (addr 8-15) | Expected: 00011111 | Actual: 00011111 | PASS
#   Test: bit_sel=7 (addr 8-15) | Expected: 00000000 | Actual: 00000000 | PASS
# ----------------------------------------
# SUMMARY: 16 passed, 0 failed
# RESULT: PASS (bit-serial: 16 checks, both blocks)
# ** Note: $finish    : verif/Input_Buffer/tb/input_buffer_bit_serial_tb.sv(143)
#    Time: 535 ns  Iteration: 0  Instance: /input_buffer_bit_serial_tb
# End time: 01:38:32 on Feb 26,2026, Elapsed time: 0:00:02
# Errors: 0, Warnings: 0
